{
  "configVersion": 2,
  "packages": [
    {
      "name": "archive",
      "rootUri": "file:///C:/Users/Mike%20Callaghan/Downloads/flutter_windows_1.17.2-stable/flutter/.pub-cache/hosted/pub.dartlang.org/archive-2.0.13",
      "packageUri": "lib/",
      "languageVersion": "2.0"
    },
    {
      "name": "args",
      "rootUri": "file:///C:/Users/Mike%20Callaghan/Downloads/flutter_windows_1.17.2-stable/flutter/.pub-cache/hosted/pub.dartlang.org/args-1.6.0",
      "packageUri": "lib/",
      "languageVersion": "2.3"
    },
    {
      "name": "async",
      "rootUri": "file:///C:/Users/Mike%20Callaghan/Downloads/flutter_windows_1.17.2-stable/flutter/.pub-cache/hosted/pub.dartlang.org/async-2.4.1",
      "packageUri": "lib/",
      "languageVersion": "2.2"
    },
    {
      "name": "boolean_selector",
      "rootUri": "file:///C:/Users/Mike%20Callaghan/Downloads/flutter_windows_1.17.2-stable/flutter/.pub-cache/hosted/pub.dartlang.org/boolean_selector-2.0.0",
      "packageUri": "lib/",
      "languageVersion": "2.4"
    },
    {
      "name": "charcode",
      "rootUri": "file:///C:/Users/Mike%20Callaghan/Downloads/flutter_windows_1.17.2-stable/flutter/.pub-cache/hosted/pub.dartlang.org/charcode-1.1.3",
      "packageUri": "lib/",
      "languageVersion": "2.0"
    },
    {
      "name": "charts_common",
      "rootUri": "file:///C:/Users/Mike%20Callaghan/Downloads/flutter_windows_1.17.2-stable/flutter/.pub-cache/hosted/pub.dartlang.org/charts_common-0.8.1",
      "packageUri": "lib/",
      "languageVersion": "2.1"
    },
    {
      "name": "charts_flutter",
      "rootUri": "file:///C:/Users/Mike%20Callaghan/Downloads/flutter_windows_1.17.2-stable/flutter/.pub-cache/hosted/pub.dartlang.org/charts_flutter-0.8.1",
      "packageUri": "lib/",
      "languageVersion": "1.23"
    },
    {
      "name": "clay_containers",
      "rootUri": "file:///C:/Users/Mike%20Callaghan/Downloads/flutter_windows_1.17.2-stable/flutter/.pub-cache/hosted/pub.dartlang.org/clay_containers-0.2.3",
      "packageUri": "lib/",
      "languageVersion": "2.1"
    },
    {
      "name": "collection",
      "rootUri": "file:///C:/Users/Mike%20Callaghan/Downloads/flutter_windows_1.17.2-stable/flutter/.pub-cache/hosted/pub.dartlang.org/collection-1.14.12",
      "packageUri": "lib/",
      "languageVersion": "2.0"
    },
    {
      "name": "convert",
      "rootUri": "file:///C:/Users/Mike%20Callaghan/Downloads/flutter_windows_1.17.2-stable/flutter/.pub-cache/hosted/pub.dartlang.org/convert-2.1.1",
      "packageUri": "lib/",
      "languageVersion": "1.17"
    },
    {
      "name": "crypto",
      "rootUri": "file:///C:/Users/Mike%20Callaghan/Downloads/flutter_windows_1.17.2-stable/flutter/.pub-cache/hosted/pub.dartlang.org/crypto-2.1.4",
      "packageUri": "lib/",
      "languageVersion": "2.1"
    },
    {
      "name": "cupertino_icons",
      "rootUri": "file:///C:/Users/Mike%20Callaghan/Downloads/flutter_windows_1.17.2-stable/flutter/.pub-cache/hosted/pub.dartlang.org/cupertino_icons-0.1.3",
      "packageUri": "lib/",
      "languageVersion": "2.0"
    },
    {
      "name": "curved_navigation_bar",
      "rootUri": "file:///C:/Users/Mike%20Callaghan/Downloads/flutter_windows_1.17.2-stable/flutter/.pub-cache/hosted/pub.dartlang.org/curved_navigation_bar-0.3.4",
      "packageUri": "lib/",
      "languageVersion": "2.0"
    },
    {
      "name": "ffi",
      "rootUri": "file:///C:/Users/Mike%20Callaghan/Downloads/flutter_windows_1.17.2-stable/flutter/.pub-cache/hosted/pub.dartlang.org/ffi-0.1.3",
      "packageUri": "lib/",
      "languageVersion": "2.6"
    },
    {
      "name": "file",
      "rootUri": "file:///C:/Users/Mike%20Callaghan/Downloads/flutter_windows_1.17.2-stable/flutter/.pub-cache/hosted/pub.dartlang.org/file-5.2.1",
      "packageUri": "lib/",
      "languageVersion": "2.2"
    },
    {
      "name": "flutter",
      "rootUri": "file:///C:/Users/Mike%20Callaghan/Downloads/flutter_windows_1.17.2-stable/flutter/packages/flutter",
      "packageUri": "lib/",
      "languageVersion": "2.2"
    },
    {
      "name": "flutter_rounded_progress_bar",
      "rootUri": "file:///C:/Users/Mike%20Callaghan/Downloads/flutter_windows_1.17.2-stable/flutter/.pub-cache/hosted/pub.dartlang.org/flutter_rounded_progress_bar-0.1.2",
      "packageUri": "lib/",
      "languageVersion": "2.1"
    },
    {
      "name": "flutter_test",
      "rootUri": "file:///C:/Users/Mike%20Callaghan/Downloads/flutter_windows_1.17.2-stable/flutter/packages/flutter_test",
      "packageUri": "lib/",
      "languageVersion": "2.2"
    },
    {
      "name": "flutter_web_plugins",
      "rootUri": "file:///C:/Users/Mike%20Callaghan/Downloads/flutter_windows_1.17.2-stable/flutter/packages/flutter_web_plugins",
      "packageUri": "lib/",
      "languageVersion": "2.0"
    },
    {
      "name": "google_fonts",
      "rootUri": "file:///C:/Users/Mike%20Callaghan/Downloads/flutter_windows_1.17.2-stable/flutter/.pub-cache/hosted/pub.dartlang.org/google_fonts-1.1.2",
      "packageUri": "lib/",
      "languageVersion": "2.3"
    },
    {
      "name": "http",
      "rootUri": "file:///C:/Users/Mike%20Callaghan/Downloads/flutter_windows_1.17.2-stable/flutter/.pub-cache/hosted/pub.dartlang.org/http-0.12.2",
      "packageUri": "lib/",
      "languageVersion": "2.4"
    },
    {
      "name": "http_parser",
      "rootUri": "file:///C:/Users/Mike%20Callaghan/Downloads/flutter_windows_1.17.2-stable/flutter/.pub-cache/hosted/pub.dartlang.org/http_parser-3.1.4",
      "packageUri": "lib/",
      "languageVersion": "2.3"
    },
    {
      "name": "image",
      "rootUri": "file:///C:/Users/Mike%20Callaghan/Downloads/flutter_windows_1.17.2-stable/flutter/.pub-cache/hosted/pub.dartlang.org/image-2.1.12",
      "packageUri": "lib/",
      "languageVersion": "2.0"
    },
    {
      "name": "intl",
      "rootUri": "file:///C:/Users/Mike%20Callaghan/Downloads/flutter_windows_1.17.2-stable/flutter/.pub-cache/hosted/pub.dartlang.org/intl-0.16.1",
      "packageUri": "lib/",
      "languageVersion": "2.5"
    },
    {
      "name": "logging",
      "rootUri": "file:///C:/Users/Mike%20Callaghan/Downloads/flutter_windows_1.17.2-stable/flutter/.pub-cache/hosted/pub.dartlang.org/logging-0.11.4",
      "packageUri": "lib/",
      "languageVersion": "2.0"
    },
    {
      "name": "matcher",
      "rootUri": "file:///C:/Users/Mike%20Callaghan/Downloads/flutter_windows_1.17.2-stable/flutter/.pub-cache/hosted/pub.dartlang.org/matcher-0.12.6",
      "packageUri": "lib/",
      "languageVersion": "2.2"
    },
    {
      "name": "meta",
      "rootUri": "file:///C:/Users/Mike%20Callaghan/Downloads/flutter_windows_1.17.2-stable/flutter/.pub-cache/hosted/pub.dartlang.org/meta-1.1.8",
      "packageUri": "lib/",
      "languageVersion": "1.12"
    },
    {
      "name": "nested",
      "rootUri": "file:///C:/Users/Mike%20Callaghan/Downloads/flutter_windows_1.17.2-stable/flutter/.pub-cache/hosted/pub.dartlang.org/nested-0.0.4",
      "packageUri": "lib/",
      "languageVersion": "2.2"
    },
    {
      "name": "path",
      "rootUri": "file:///C:/Users/Mike%20Callaghan/Downloads/flutter_windows_1.17.2-stable/flutter/.pub-cache/hosted/pub.dartlang.org/path-1.6.4",
      "packageUri": "lib/",
      "languageVersion": "2.0"
    },
    {
      "name": "path_provider",
      "rootUri": "file:///C:/Users/Mike%20Callaghan/Downloads/flutter_windows_1.17.2-stable/flutter/.pub-cache/hosted/pub.dartlang.org/path_provider-1.6.28",
      "packageUri": "lib/",
      "languageVersion": "2.1"
    },
    {
      "name": "path_provider_linux",
      "rootUri": "file:///C:/Users/Mike%20Callaghan/Downloads/flutter_windows_1.17.2-stable/flutter/.pub-cache/hosted/pub.dartlang.org/path_provider_linux-0.0.1+2",
      "packageUri": "lib/",
      "languageVersion": "2.1"
    },
    {
      "name": "path_provider_macos",
      "rootUri": "file:///C:/Users/Mike%20Callaghan/Downloads/flutter_windows_1.17.2-stable/flutter/.pub-cache/hosted/pub.dartlang.org/path_provider_macos-0.0.4+8",
      "packageUri": "lib/",
      "languageVersion": "2.1"
    },
    {
      "name": "path_provider_platform_interface",
      "rootUri": "file:///C:/Users/Mike%20Callaghan/Downloads/flutter_windows_1.17.2-stable/flutter/.pub-cache/hosted/pub.dartlang.org/path_provider_platform_interface-1.0.4",
      "packageUri": "lib/",
      "languageVersion": "2.1"
    },
    {
      "name": "path_provider_windows",
      "rootUri": "file:///C:/Users/Mike%20Callaghan/Downloads/flutter_windows_1.17.2-stable/flutter/.pub-cache/hosted/pub.dartlang.org/path_provider_windows-0.0.4+3",
      "packageUri": "lib/",
      "languageVersion": "2.1"
    },
    {
      "name": "pedantic",
      "rootUri": "file:///C:/Users/Mike%20Callaghan/Downloads/flutter_windows_1.17.2-stable/flutter/.pub-cache/hosted/pub.dartlang.org/pedantic-1.9.0",
      "packageUri": "lib/",
      "languageVersion": "2.1"
    },
    {
      "name": "percent_indicator",
      "rootUri": "file:///C:/Users/Mike%20Callaghan/Downloads/flutter_windows_1.17.2-stable/flutter/.pub-cache/hosted/pub.dartlang.org/percent_indicator-2.1.9+1",
      "packageUri": "lib/",
      "languageVersion": "2.7"
    },
    {
      "name": "petitparser",
      "rootUri": "file:///C:/Users/Mike%20Callaghan/Downloads/flutter_windows_1.17.2-stable/flutter/.pub-cache/hosted/pub.dartlang.org/petitparser-2.4.0",
      "packageUri": "lib/",
      "languageVersion": "2.4"
    },
    {
      "name": "platform",
      "rootUri": "file:///C:/Users/Mike%20Callaghan/Downloads/flutter_windows_1.17.2-stable/flutter/.pub-cache/hosted/pub.dartlang.org/platform-2.2.1",
      "packageUri": "lib/",
      "languageVersion": "1.24"
    },
    {
      "name": "plugin_platform_interface",
      "rootUri": "file:///C:/Users/Mike%20Callaghan/Downloads/flutter_windows_1.17.2-stable/flutter/.pub-cache/hosted/pub.dartlang.org/plugin_platform_interface-1.0.3",
      "packageUri": "lib/",
      "languageVersion": "2.1"
    },
    {
      "name": "process",
      "rootUri": "file:///C:/Users/Mike%20Callaghan/Downloads/flutter_windows_1.17.2-stable/flutter/.pub-cache/hosted/pub.dartlang.org/process-3.0.13",
      "packageUri": "lib/",
      "languageVersion": "2.0"
    },
    {
      "name": "provider",
      "rootUri": "file:///C:/Users/Mike%20Callaghan/Downloads/flutter_windows_1.17.2-stable/flutter/.pub-cache/hosted/pub.dartlang.org/provider-4.3.2+2",
      "packageUri": "lib/",
      "languageVersion": "2.7"
    },
    {
      "name": "quiver",
      "rootUri": "file:///C:/Users/Mike%20Callaghan/Downloads/flutter_windows_1.17.2-stable/flutter/.pub-cache/hosted/pub.dartlang.org/quiver-2.1.3",
      "packageUri": "lib/",
      "languageVersion": "2.0"
    },
    {
      "name": "shared_preferences",
      "rootUri": "file:///C:/Users/Mike%20Callaghan/Downloads/flutter_windows_1.17.2-stable/flutter/.pub-cache/hosted/pub.dartlang.org/shared_preferences-0.5.12+4",
      "packageUri": "lib/",
      "languageVersion": "2.1"
    },
    {
      "name": "shared_preferences_linux",
      "rootUri": "file:///C:/Users/Mike%20Callaghan/Downloads/flutter_windows_1.17.2-stable/flutter/.pub-cache/hosted/pub.dartlang.org/shared_preferences_linux-0.0.2+4",
      "packageUri": "lib/",
      "languageVersion": "2.1"
    },
    {
      "name": "shared_preferences_macos",
      "rootUri": "file:///C:/Users/Mike%20Callaghan/Downloads/flutter_windows_1.17.2-stable/flutter/.pub-cache/hosted/pub.dartlang.org/shared_preferences_macos-0.0.1+11",
      "packageUri": "lib/",
      "languageVersion": "2.1"
    },
    {
      "name": "shared_preferences_platform_interface",
      "rootUri": "file:///C:/Users/Mike%20Callaghan/Downloads/flutter_windows_1.17.2-stable/flutter/.pub-cache/hosted/pub.dartlang.org/shared_preferences_platform_interface-1.0.4",
      "packageUri": "lib/",
      "languageVersion": "2.1"
    },
    {
      "name": "shared_preferences_web",
      "rootUri": "file:///C:/Users/Mike%20Callaghan/Downloads/flutter_windows_1.17.2-stable/flutter/.pub-cache/hosted/pub.dartlang.org/shared_preferences_web-0.1.2+7",
      "packageUri": "lib/",
      "languageVersion": "2.1"
    },
    {
      "name": "shared_preferences_windows",
      "rootUri": "file:///C:/Users/Mike%20Callaghan/Downloads/flutter_windows_1.17.2-stable/flutter/.pub-cache/hosted/pub.dartlang.org/shared_preferences_windows-0.0.2+3",
      "packageUri": "lib/",
      "languageVersion": "2.1"
    },
    {
      "name": "sky_engine",
      "rootUri": "file:///C:/Users/Mike%20Callaghan/Downloads/flutter_windows_1.17.2-stable/flutter/bin/cache/pkg/sky_engine",
      "packageUri": "lib/",
      "languageVersion": "1.11"
    },
    {
      "name": "source_span",
      "rootUri": "file:///C:/Users/Mike%20Callaghan/Downloads/flutter_windows_1.17.2-stable/flutter/.pub-cache/hosted/pub.dartlang.org/source_span-1.7.0",
      "packageUri": "lib/",
      "languageVersion": "2.6"
    },
    {
      "name": "stack_trace",
      "rootUri": "file:///C:/Users/Mike%20Callaghan/Downloads/flutter_windows_1.17.2-stable/flutter/.pub-cache/hosted/pub.dartlang.org/stack_trace-1.9.3",
      "packageUri": "lib/",
      "languageVersion": "1.23"
    },
    {
      "name": "stream_channel",
      "rootUri": "file:///C:/Users/Mike%20Callaghan/Downloads/flutter_windows_1.17.2-stable/flutter/.pub-cache/hosted/pub.dartlang.org/stream_channel-2.0.0",
      "packageUri": "lib/",
      "languageVersion": "2.0"
    },
    {
      "name": "string_scanner",
      "rootUri": "file:///C:/Users/Mike%20Callaghan/Downloads/flutter_windows_1.17.2-stable/flutter/.pub-cache/hosted/pub.dartlang.org/string_scanner-1.0.5",
      "packageUri": "lib/",
      "languageVersion": "2.0"
    },
    {
      "name": "term_glyph",
      "rootUri": "file:///C:/Users/Mike%20Callaghan/Downloads/flutter_windows_1.17.2-stable/flutter/.pub-cache/hosted/pub.dartlang.org/term_glyph-1.1.0",
      "packageUri": "lib/",
      "languageVersion": "1.8"
    },
    {
      "name": "test_api",
      "rootUri": "file:///C:/Users/Mike%20Callaghan/Downloads/flutter_windows_1.17.2-stable/flutter/.pub-cache/hosted/pub.dartlang.org/test_api-0.2.15",
      "packageUri": "lib/",
      "languageVersion": "2.4"
    },
    {
      "name": "typed_data",
      "rootUri": "file:///C:/Users/Mike%20Callaghan/Downloads/flutter_windows_1.17.2-stable/flutter/.pub-cache/hosted/pub.dartlang.org/typed_data-1.1.6",
      "packageUri": "lib/",
      "languageVersion": "2.0"
    },
    {
      "name": "vector_math",
      "rootUri": "file:///C:/Users/Mike%20Callaghan/Downloads/flutter_windows_1.17.2-stable/flutter/.pub-cache/hosted/pub.dartlang.org/vector_math-2.0.8",
      "packageUri": "lib/",
      "languageVersion": "2.0"
    },
    {
      "name": "win32",
      "rootUri": "file:///C:/Users/Mike%20Callaghan/Downloads/flutter_windows_1.17.2-stable/flutter/.pub-cache/hosted/pub.dartlang.org/win32-1.7.4+1",
      "packageUri": "lib/",
      "languageVersion": "2.7"
    },
    {
      "name": "xdg_directories",
      "rootUri": "file:///C:/Users/Mike%20Callaghan/Downloads/flutter_windows_1.17.2-stable/flutter/.pub-cache/hosted/pub.dartlang.org/xdg_directories-0.1.0",
      "packageUri": "lib/",
      "languageVersion": "2.3"
    },
    {
      "name": "xml",
      "rootUri": "file:///C:/Users/Mike%20Callaghan/Downloads/flutter_windows_1.17.2-stable/flutter/.pub-cache/hosted/pub.dartlang.org/xml-3.6.1",
      "packageUri": "lib/",
      "languageVersion": "2.6"
    },
    {
      "name": "InfluencerApp",
      "rootUri": "../",
      "packageUri": "lib/",
      "languageVersion": "2.7"
    }
  ],
  "generated": "2021-12-14T20:09:22.191934Z",
  "generator": "pub",
  "generatorVersion": "2.8.3"
}
